\relax 
\providecommand\hyper@newdestlabel[2]{}
\catcode `"\active 
\abx@aux@refcontext{nty/global//global/global}
\providecommand\HyperFirstAtBeginDocument{\AtBeginDocument}
\HyperFirstAtBeginDocument{\ifx\hyper@anchor\@undefined
\global\let\oldcontentsline\contentsline
\gdef\contentsline#1#2#3#4{\oldcontentsline{#1}{#2}{#3}}
\global\let\oldnewlabel\newlabel
\gdef\newlabel#1#2{\newlabelxx{#1}#2}
\gdef\newlabelxx#1#2#3#4#5#6{\oldnewlabel{#1}{{#2}{#3}}}
\AtEndDocument{\ifx\hyper@anchor\@undefined
\let\contentsline\oldcontentsline
\let\newlabel\oldnewlabel
\fi}
\fi}
\global\let\hyper@last\relax 
\gdef\HyperFirstAtBeginDocument#1{#1}
\providecommand\HyField@AuxAddToFields[1]{}
\providecommand\HyField@AuxAddToCoFields[2]{}
\abx@aux@cite{pdg}
\abx@aux@segm{0}{0}{pdg}
\@writefile{toc}{\boolfalse {citerequest}\boolfalse {citetracker}\boolfalse {pagetracker}\boolfalse {backtracker}\relax }
\@writefile{lof}{\boolfalse {citerequest}\boolfalse {citetracker}\boolfalse {pagetracker}\boolfalse {backtracker}\relax }
\@writefile{lot}{\boolfalse {citerequest}\boolfalse {citetracker}\boolfalse {pagetracker}\boolfalse {backtracker}\relax }
\select@language {russian}
\@writefile{toc}{\defcounter {refsection}{0}\relax }\@writefile{toc}{\select@language {russian}}
\@writefile{lof}{\defcounter {refsection}{0}\relax }\@writefile{lof}{\select@language {russian}}
\@writefile{lot}{\defcounter {refsection}{0}\relax }\@writefile{lot}{\select@language {russian}}
\@writefile{toc}{\defcounter {refsection}{0}\relax }\@writefile{toc}{\contentsline {section}{\numberline {1}Мотивация к изучению физики прелестных адронов}{1}{section.1}}
\newlabel{intro}{{1}{1}{Мотивация к изучению физики прелестных адронов}{section.1}{}}
\abx@aux@cite{cms-tdr}
\abx@aux@segm{0}{0}{cms-tdr}
\abx@aux@cite{belle-tdr}
\abx@aux@segm{0}{0}{belle-tdr}
\abx@aux@cite{babar-tdr}
\abx@aux@segm{0}{0}{babar-tdr}
\abx@aux@cite{belle2-tdr}
\abx@aux@segm{0}{0}{belle2-tdr}
\@writefile{toc}{\defcounter {refsection}{0}\relax }\@writefile{toc}{\contentsline {section}{\numberline {2}Эксперимент CMS в сравнении с другими экспериментами в области физики прелестных адронов}{2}{section.2}}
\newlabel{detector}{{2}{2}{Эксперимент CMS в сравнении с другими экспериментами в области физики прелестных адронов}{section.2}{}}
\abx@aux@cite{lhcb-tdr}
\abx@aux@segm{0}{0}{lhcb-tdr}
\abx@aux@cite{lhcb-b2kmm}
\abx@aux@segm{0}{0}{lhcb-b2kmm}
\abx@aux@cite{lhcb-bs2kmm}
\abx@aux@segm{0}{0}{lhcb-bs2kmm}
\abx@aux@cite{belle-b2kmm}
\abx@aux@segm{0}{0}{belle-b2kmm}
\abx@aux@cite{lhcb-b2dlnu}
\abx@aux@segm{0}{0}{lhcb-b2dlnu}
\@writefile{toc}{\defcounter {refsection}{0}\relax }\@writefile{toc}{\contentsline {section}{\numberline {3}Основные результаты, полученные сотрудничеством CMS в физике прелестных адронов}{3}{section.3}}
\@writefile{toc}{\defcounter {refsection}{0}\relax }\@writefile{toc}{\contentsline {subsection}{\numberline {3.1}Изучение процессов, протекающих с нарушением лептонной универсальности}{3}{subsection.3.1}}
\abx@aux@cite{cms-b2kstmm}
\abx@aux@segm{0}{0}{cms-b2kstmm}
\abx@aux@cite{cms-b2kmm}
\abx@aux@segm{0}{0}{cms-b2kmm}
\abx@aux@segm{0}{0}{cms-b2kstmm}
\abx@aux@segm{0}{0}{cms-b2kstmm}
\@writefile{lof}{\defcounter {refsection}{0}\relax }\@writefile{lof}{\contentsline {figure}{\numberline {1}{\ignorespaces Зависимость угловых параметров $P_1$ и $P_5'$ от квадрата инвариантной массы двух мюонов $q^2$ из распада $B^0\rightarrow K^{*0}\mu \mu $. Представлены данные экспериментов CMS, LHCb и теоретические расчёты. Источник:~\cite {cms-b2kstmm}.}}{4}{figure.1}}
\newlabel{cms-b2kstmm}{{1}{4}{Зависимость угловых параметров $P_1$ и $P_5'$ от квадрата инвариантной массы двух мюонов $q^2$ из распада $B^0\rightarrow K^{*0}\mu \mu $. Представлены данные экспериментов CMS, LHCb и теоретические расчёты. Источник:~\cite {cms-b2kstmm}}{figure.1}{}}
\abx@aux@cite{th-bs2mm}
\abx@aux@segm{0}{0}{th-bs2mm}
\abx@aux@cite{bs2mm}
\abx@aux@segm{0}{0}{bs2mm}
\abx@aux@segm{0}{0}{bs2mm}
\abx@aux@segm{0}{0}{bs2mm}
\abx@aux@cite{lhcb-bs2mm-new}
\abx@aux@segm{0}{0}{lhcb-bs2mm-new}
\abx@aux@cite{cms-x}
\abx@aux@segm{0}{0}{cms-x}
\@writefile{toc}{\defcounter {refsection}{0}\relax }\@writefile{toc}{\contentsline {subsection}{\numberline {3.2}Поиск редких распадов $B^0_{(s)}\rightarrow \mu ^+\mu ^-$}{5}{subsection.3.2}}
\@writefile{toc}{\defcounter {refsection}{0}\relax }\@writefile{toc}{\contentsline {subsection}{\numberline {3.3}Изучение механизмов рождения $X(3872)$}{5}{subsection.3.3}}
\abx@aux@cite{x-theor}
\abx@aux@segm{0}{0}{x-theor}
\abx@aux@segm{0}{0}{cms-x}
\abx@aux@segm{0}{0}{cms-x}
\@writefile{lof}{\defcounter {refsection}{0}\relax }\@writefile{lof}{\contentsline {figure}{\numberline {2}{\ignorespaces Распределение по инвариантной массе мюонов. Показаны сигналы от процессов $B_s\rightarrow \mu ^+\mu ^-$ и $B^0\rightarrow \mu ^+\mu ^-$, а также источники фона: комбинаторный фон, фон от полулептонных распадов $B_{(s)}\rightarrow K\mu \nu _{\mu }$ и пикующийся фон от распадов $B^0\rightarrow K\pi $, где каон и пион мисидентифицируются как мюоны. Источник:~\cite {bs2mm}.}}{6}{figure.2}}
\newlabel{bs2mm}{{2}{6}{Распределение по инвариантной массе мюонов. Показаны сигналы от процессов $B_s\rightarrow \mu ^+\mu ^-$ и $B^0\rightarrow \mu ^+\mu ^-$, а также источники фона: комбинаторный фон, фон от полулептонных распадов $B_{(s)}\rightarrow K\mu \nu _{\mu }$ и пикующийся фон от распадов $B^0\rightarrow K\pi $, где каон и пион мисидентифицируются как мюоны. Источник:~\cite {bs2mm}}{figure.2}{}}
\abx@aux@cite{d0-x5568}
\abx@aux@segm{0}{0}{d0-x5568}
\abx@aux@cite{cms-x5568}
\abx@aux@segm{0}{0}{cms-x5568}
\abx@aux@segm{0}{0}{d0-x5568}
\abx@aux@segm{0}{0}{cms-x5568}
\abx@aux@segm{0}{0}{d0-x5568}
\abx@aux@segm{0}{0}{cms-x5568}
\abx@aux@cite{cdf-bs}
\abx@aux@segm{0}{0}{cdf-bs}
\abx@aux@cite{d0-bs}
\abx@aux@segm{0}{0}{d0-bs}
\abx@aux@cite{lhcb-bs}
\abx@aux@segm{0}{0}{lhcb-bs}
\@writefile{lof}{\defcounter {refsection}{0}\relax }\@writefile{lof}{\contentsline {figure}{\numberline {3}{\ignorespaces Распределение доли непрямого рождения $X(3872)$ по поперечному импульсу комбинации $J/\psi \pi \pi $. Источник:~\cite {cms-x}.}}{7}{figure.3}}
\newlabel{cms-xnonprompt}{{3}{7}{Распределение доли непрямого рождения $X(3872)$ по поперечному импульсу комбинации $J/\psi \pi \pi $. Источник:~\cite {cms-x}}{figure.3}{}}
\@writefile{toc}{\defcounter {refsection}{0}\relax }\@writefile{toc}{\contentsline {subsection}{\numberline {3.4}Поиск состояния $X(5568)$}{7}{subsection.3.4}}
\abx@aux@cite{cms-bs}
\abx@aux@segm{0}{0}{cms-bs}
\abx@aux@segm{0}{0}{cms-bs}
\abx@aux@segm{0}{0}{cms-bs}
\@writefile{lof}{\defcounter {refsection}{0}\relax }\@writefile{lof}{\contentsline {figure}{\numberline {4}{\ignorespaces Cпектры инвариантных масс $B_s\pi ^+$, полученные в экспериментах $D0$ (а)~\cite {d0-x5568} и CMS (б)~\cite {cms-x5568}.}}{8}{figure.4}}
\newlabel{x5568}{{4}{8}{Cпектры инвариантных масс $B_s\pi ^+$, полученные в экспериментах $D0$ (а)~\cite {d0-x5568} и CMS (б)~\cite {cms-x5568}}{figure.4}{}}
\@writefile{toc}{\defcounter {refsection}{0}\relax }\@writefile{toc}{\contentsline {subsection}{\numberline {3.5}Изучение состояний $B_{s1}(5830)^0$ и $B_{s2}(5840)^0$}{8}{subsection.3.5}}
\@writefile{lof}{\defcounter {refsection}{0}\relax }\@writefile{lof}{\contentsline {figure}{\numberline {5}{\ignorespaces Распределение по инвариантной массе комбинации $B^0K^0_s$. Пики в распределении отвечают процессам (слева направо) $B_{s1}(5830)^0\rightarrow B^{*0}K^0_s$, $B_{s2}(5840)^0\rightarrow B^{*0}K^0_s$ и $B_{s2}(5840)^0\rightarrow B^{0}K^0_s$. Источник:~\cite {cms-bs}.}}{8}{figure.5}}
\newlabel{cms-bs}{{5}{8}{Распределение по инвариантной массе комбинации $B^0K^0_s$. Пики в распределении отвечают процессам (слева направо) $B_{s1}(5830)^0\rightarrow B^{*0}K^0_s$, $B_{s2}(5840)^0\rightarrow B^{*0}K^0_s$ и $B_{s2}(5840)^0\rightarrow B^{0}K^0_s$. Источник:~\cite {cms-bs}}{figure.5}{}}
\abx@aux@cite{atlas-chib}
\abx@aux@segm{0}{0}{atlas-chib}
\abx@aux@cite{d0-chib}
\abx@aux@segm{0}{0}{d0-chib}
\abx@aux@cite{lhcb-chib}
\abx@aux@segm{0}{0}{lhcb-chib}
\abx@aux@cite{cms-chib}
\abx@aux@segm{0}{0}{cms-chib}
\abx@aux@segm{0}{0}{cms-chib}
\abx@aux@segm{0}{0}{cms-chib}
\@writefile{toc}{\defcounter {refsection}{0}\relax }\@writefile{toc}{\contentsline {subsection}{\numberline {3.6}Разрешение структуры $\chi _b(3P)$}{9}{subsection.3.6}}
\abx@aux@cite{cms-bc}
\abx@aux@segm{0}{0}{cms-bc}
\abx@aux@segm{0}{0}{cms-bc}
\abx@aux@segm{0}{0}{cms-bc}
\@writefile{lof}{\defcounter {refsection}{0}\relax }\@writefile{lof}{\contentsline {figure}{\numberline {6}{\ignorespaces Распределение по инвариантной массе комбинации $\Upsilon (3S)\gamma $. Пики в распределении отвечают состояниям $\chi _{b1}(3P)$ и $\chi _{b2}(3P)$. Источник:~\cite {cms-chib}.}}{10}{figure.6}}
\newlabel{cms-chib}{{6}{10}{Распределение по инвариантной массе комбинации $\Upsilon (3S)\gamma $. Пики в распределении отвечают состояниям $\chi _{b1}(3P)$ и $\chi _{b2}(3P)$. Источник:~\cite {cms-chib}}{figure.6}{}}
\@writefile{toc}{\defcounter {refsection}{0}\relax }\@writefile{toc}{\contentsline {subsection}{\numberline {3.7}Обнаружение состояний $B_c(2S)$ и $B^*_c(2S)$}{10}{subsection.3.7}}
\@writefile{lof}{\defcounter {refsection}{0}\relax }\@writefile{lof}{\contentsline {figure}{\numberline {7}{\ignorespaces Распределение по инвариантной массе комбинации $B_c\pi ^+\pi ^-$. Пики в распределении отвечают состояниям $B_c(2S)$ и $B_c^*(2S)$. Источник:~\cite {cms-bc}.}}{11}{figure.7}}
\newlabel{cms-bc}{{7}{11}{Распределение по инвариантной массе комбинации $B_c\pi ^+\pi ^-$. Пики в распределении отвечают состояниям $B_c(2S)$ и $B_c^*(2S)$. Источник:~\cite {cms-bc}}{figure.7}{}}
\@writefile{toc}{\defcounter {refsection}{0}\relax }\@writefile{toc}{\contentsline {section}{\numberline {4}Заключение}{11}{section.4}}
\abx@aux@refcontextdefaultsdone
\abx@aux@defaultrefcontext{0}{atlas-chib}{nty/global//global/global}
\abx@aux@defaultrefcontext{0}{lhcb-bs2kmm}{nty/global//global/global}
\abx@aux@defaultrefcontext{0}{lhcb-b2kmm}{nty/global//global/global}
\abx@aux@defaultrefcontext{0}{lhcb-bs}{nty/global//global/global}
\abx@aux@defaultrefcontext{0}{lhcb-bs2mm-new}{nty/global//global/global}
\abx@aux@defaultrefcontext{0}{lhcb-b2dlnu}{nty/global//global/global}
\abx@aux@defaultrefcontext{0}{lhcb-chib}{nty/global//global/global}
\abx@aux@defaultrefcontext{0}{cdf-bs}{nty/global//global/global}
\abx@aux@defaultrefcontext{0}{belle-tdr}{nty/global//global/global}
\abx@aux@defaultrefcontext{0}{d0-x5568}{nty/global//global/global}
\abx@aux@defaultrefcontext{0}{d0-bs}{nty/global//global/global}
\abx@aux@defaultrefcontext{0}{d0-chib}{nty/global//global/global}
\abx@aux@defaultrefcontext{0}{belle-b2kmm}{nty/global//global/global}
\abx@aux@defaultrefcontext{0}{belle2-tdr}{nty/global//global/global}
\abx@aux@defaultrefcontext{0}{x-theor}{nty/global//global/global}
\abx@aux@defaultrefcontext{0}{babar-tdr}{nty/global//global/global}
\abx@aux@defaultrefcontext{0}{lhcb-tdr}{nty/global//global/global}
\abx@aux@defaultrefcontext{0}{th-bs2mm}{nty/global//global/global}
\abx@aux@defaultrefcontext{0}{cms-x}{nty/global//global/global}
\abx@aux@defaultrefcontext{0}{cms-tdr}{nty/global//global/global}
\abx@aux@defaultrefcontext{0}{bs2mm}{nty/global//global/global}
\abx@aux@defaultrefcontext{0}{cms-b2kmm}{nty/global//global/global}
\abx@aux@defaultrefcontext{0}{cms-b2kstmm}{nty/global//global/global}
\abx@aux@defaultrefcontext{0}{cms-chib}{nty/global//global/global}
\abx@aux@defaultrefcontext{0}{cms-bc}{nty/global//global/global}
\abx@aux@defaultrefcontext{0}{cms-x5568}{nty/global//global/global}
\abx@aux@defaultrefcontext{0}{cms-bs}{nty/global//global/global}
\abx@aux@defaultrefcontext{0}{pdg}{nty/global//global/global}
