\BOOKMARK [1][-]{section.1}{Мотивация к изучению физики прелестных адронов}{}% 1
\BOOKMARK [1][-]{section.2}{Эксперимент CMS в сравнении с другими экспериментами в области физики прелестных адронов}{}% 2
\BOOKMARK [1][-]{section.3}{Основные результаты, полученные сотрудничеством CMS в физике прелестных адронов}{}% 3
\BOOKMARK [2][-]{subsection.3.1}{Изучение процессов, протекающих с нарушением лептонной универсальности}{section.3}% 4
\BOOKMARK [2][-]{subsection.3.2}{Поиск редких распадов B0\(s\)+-}{section.3}% 5
\BOOKMARK [2][-]{subsection.3.3}{Изучение механизмов рождения X\(3872\)}{section.3}% 6
\BOOKMARK [2][-]{subsection.3.4}{Поиск состояния X\(5568\)}{section.3}% 7
\BOOKMARK [2][-]{subsection.3.5}{Изучение состояний Bs1\(5830\)0 и Bs2\(5840\)0}{section.3}% 8
\BOOKMARK [2][-]{subsection.3.6}{Разрешение структуры b\(3P\)}{section.3}% 9
\BOOKMARK [2][-]{subsection.3.7}{Обнаружение состояний Bc\(2S\) и B*c\(2S\)}{section.3}% 10
\BOOKMARK [1][-]{section.4}{Заключение}{}% 11
