% $ biblatex auxiliary file $
% $ biblatex bbl format version 2.9 $
% Do not modify the above lines!
%
% This is an auxiliary file used by the 'biblatex' package.
% This file may safely be deleted. It will be recreated by
% biber as required.
%
\begingroup
\makeatletter
\@ifundefined{ver@biblatex.sty}
  {\@latex@error
     {Missing 'biblatex' package}
     {The bibliography requires the 'biblatex' package.}
      \aftergroup\endinput}
  {}
\endgroup


\refsection{0}
  \datalist[entry]{nty/global//global/global}
    \entry{atlas}{article}{}
      \name{author}{1}{}{%
        {{hash=12e2d095bf327c4ad69d8ff09ed7ed45}{%
           family={al.},
           familyi={a\bibinitperiod},
           given={Aad\bibnamedelima G.},
           giveni={A\bibinitperiod\bibinitdelim G\bibinitperiod},
           prefix={et},
           prefixi={e\bibinitperiod}}}%
      }
      \strng{namehash}{12e2d095bf327c4ad69d8ff09ed7ed45}
      \strng{fullhash}{12e2d095bf327c4ad69d8ff09ed7ed45}
      \strng{bibnamehash}{12e2d095bf327c4ad69d8ff09ed7ed45}
      \strng{authorbibnamehash}{12e2d095bf327c4ad69d8ff09ed7ed45}
      \strng{authornamehash}{12e2d095bf327c4ad69d8ff09ed7ed45}
      \strng{authorfullhash}{12e2d095bf327c4ad69d8ff09ed7ed45}
      \field{sortinit}{a}
      \field{sortinithash}{d77c7cdd82ff690d4c3ef13216f92f0b}
      \field{labelnamesource}{author}
      \field{labeltitlesource}{title}
      \field{journaltitle}{Physics Letters B.}
      \field{title}{Observation of a new particle in the search for the Standard Model Higgs boson with the ATLAS detector at the LHC}
      \field{volume}{716}
      \field{year}{2012}
      \field{pages}{1\bibrangedash 29}
      \range{pages}{29}
    \endentry
    \entry{tdrv3.1}{book}{}
      \name{author}{1}{}{%
        {{hash=1b16a8362db98967da7dd358714be6d8}{%
           family={al.},
           familyi={a\bibinitperiod},
           given={C.\bibnamedelimi Adolphsen},
           giveni={C\bibinitperiod\bibinitdelim A\bibinitperiod},
           prefix={et},
           prefixi={e\bibinitperiod}}}%
      }
      \strng{namehash}{1b16a8362db98967da7dd358714be6d8}
      \strng{fullhash}{1b16a8362db98967da7dd358714be6d8}
      \strng{bibnamehash}{1b16a8362db98967da7dd358714be6d8}
      \strng{authorbibnamehash}{1b16a8362db98967da7dd358714be6d8}
      \strng{authornamehash}{1b16a8362db98967da7dd358714be6d8}
      \strng{authorfullhash}{1b16a8362db98967da7dd358714be6d8}
      \field{sortinit}{a}
      \field{sortinithash}{d77c7cdd82ff690d4c3ef13216f92f0b}
      \field{labelnamesource}{author}
      \field{labeltitlesource}{title}
      \field{title}{The International Linear Collider Technical Design Report}
      \field{volume}{3.I: Accelerator R\&D}
      \field{year}{2013}
    \endentry
    \entry{tdrv3.2}{book}{}
      \name{author}{1}{}{%
        {{hash=1b16a8362db98967da7dd358714be6d8}{%
           family={al.},
           familyi={a\bibinitperiod},
           given={C.\bibnamedelimi Adolphsen},
           giveni={C\bibinitperiod\bibinitdelim A\bibinitperiod},
           prefix={et},
           prefixi={e\bibinitperiod}}}%
      }
      \strng{namehash}{1b16a8362db98967da7dd358714be6d8}
      \strng{fullhash}{1b16a8362db98967da7dd358714be6d8}
      \strng{bibnamehash}{1b16a8362db98967da7dd358714be6d8}
      \strng{authorbibnamehash}{1b16a8362db98967da7dd358714be6d8}
      \strng{authornamehash}{1b16a8362db98967da7dd358714be6d8}
      \strng{authorfullhash}{1b16a8362db98967da7dd358714be6d8}
      \field{sortinit}{a}
      \field{sortinithash}{d77c7cdd82ff690d4c3ef13216f92f0b}
      \field{labelnamesource}{author}
      \field{labeltitlesource}{title}
      \field{title}{The International Linear Collider Technical Design Report}
      \field{volume}{3.II: Accelerator Baseline Design}
      \field{year}{2013}
    \endentry
    \entry{tdrv4}{book}{}
      \name{author}{1}{}{%
        {{hash=19c5668ae3c2c374ba6dd80c5b0efb8c}{%
           family={al.},
           familyi={a\bibinitperiod},
           given={T.\bibnamedelimi Behnke},
           giveni={T\bibinitperiod\bibinitdelim B\bibinitperiod},
           prefix={et},
           prefixi={e\bibinitperiod}}}%
      }
      \strng{namehash}{19c5668ae3c2c374ba6dd80c5b0efb8c}
      \strng{fullhash}{19c5668ae3c2c374ba6dd80c5b0efb8c}
      \strng{bibnamehash}{19c5668ae3c2c374ba6dd80c5b0efb8c}
      \strng{authorbibnamehash}{19c5668ae3c2c374ba6dd80c5b0efb8c}
      \strng{authornamehash}{19c5668ae3c2c374ba6dd80c5b0efb8c}
      \strng{authorfullhash}{19c5668ae3c2c374ba6dd80c5b0efb8c}
      \field{sortinit}{a}
      \field{sortinithash}{d77c7cdd82ff690d4c3ef13216f92f0b}
      \field{labelnamesource}{author}
      \field{labeltitlesource}{title}
      \field{title}{The International Linear Collider Technical Design Report}
      \field{volume}{4}
      \field{year}{2013}
    \endentry
    \entry{drutskoy}{article}{}
      \name{author}{1}{}{%
        {{hash=4c568dc738f70e6d29ce5c7984f76870}{%
           family={Друцкой},
           familyi={Д\bibinitperiod},
           given={А.Г.},
           giveni={А\bibinitperiod}}}%
      }
      \strng{namehash}{4c568dc738f70e6d29ce5c7984f76870}
      \strng{fullhash}{4c568dc738f70e6d29ce5c7984f76870}
      \strng{bibnamehash}{4c568dc738f70e6d29ce5c7984f76870}
      \strng{authorbibnamehash}{4c568dc738f70e6d29ce5c7984f76870}
      \strng{authornamehash}{4c568dc738f70e6d29ce5c7984f76870}
      \strng{authorfullhash}{4c568dc738f70e6d29ce5c7984f76870}
      \field{sortinit}{Д}
      \field{sortinithash}{557ff58863be257910ce8f1c2aa58a79}
      \field{labelnamesource}{author}
      \field{labeltitlesource}{title}
      \field{journaltitle}{УФН 189 478–493}
      \field{title}{Эксперименты на линейном коллайдере ILC: ожидаемые результаты физических исследований}
      \field{year}{2019}
    \endentry
    \entry{vjets}{article}{}
      \name{author}{1}{}{%
        {{hash=55cc927b46450a032c6a8968b6d8adc3}{%
           family={al.},
           familyi={a\bibinitperiod},
           given={Marça\bibnamedelima Boronat.},
           giveni={M\bibinitperiod\bibinitdelim B\bibinitperiod},
           prefix={et},
           prefixi={e\bibinitperiod}}}%
      }
      \strng{namehash}{55cc927b46450a032c6a8968b6d8adc3}
      \strng{fullhash}{55cc927b46450a032c6a8968b6d8adc3}
      \strng{bibnamehash}{55cc927b46450a032c6a8968b6d8adc3}
      \strng{authorbibnamehash}{55cc927b46450a032c6a8968b6d8adc3}
      \strng{authornamehash}{55cc927b46450a032c6a8968b6d8adc3}
      \strng{authorfullhash}{55cc927b46450a032c6a8968b6d8adc3}
      \field{sortinit}{a}
      \field{sortinithash}{d77c7cdd82ff690d4c3ef13216f92f0b}
      \field{labelnamesource}{author}
      \field{labeltitlesource}{title}
      \field{journaltitle}{Nuclear and Particle Physics Proceedings}
      \field{title}{A new jet reconstruction algorithm for lepton colliders}
      \field{volume}{273-275}
      \field{year}{2014}
      \field{pages}{2749\bibrangedash 2751}
      \range{pages}{3}
    \endentry
  \enddatalist
\endrefsection
\endinput

