\relax 
\providecommand\hyper@newdestlabel[2]{}
\catcode `"\active 
\abx@aux@refcontext{nty/global//global/global}
\providecommand\HyperFirstAtBeginDocument{\AtBeginDocument}
\HyperFirstAtBeginDocument{\ifx\hyper@anchor\@undefined
\global\let\oldcontentsline\contentsline
\gdef\contentsline#1#2#3#4{\oldcontentsline{#1}{#2}{#3}}
\global\let\oldnewlabel\newlabel
\gdef\newlabel#1#2{\newlabelxx{#1}#2}
\gdef\newlabelxx#1#2#3#4#5#6{\oldnewlabel{#1}{{#2}{#3}}}
\AtEndDocument{\ifx\hyper@anchor\@undefined
\let\contentsline\oldcontentsline
\let\newlabel\oldnewlabel
\fi}
\fi}
\global\let\hyper@last\relax 
\gdef\HyperFirstAtBeginDocument#1{#1}
\providecommand\HyField@AuxAddToFields[1]{}
\providecommand\HyField@AuxAddToCoFields[2]{}
\abx@aux@cite{atlas}
\abx@aux@segm{0}{0}{atlas}
\@writefile{toc}{\boolfalse {citerequest}\boolfalse {citetracker}\boolfalse {pagetracker}\boolfalse {backtracker}\relax }
\@writefile{lof}{\boolfalse {citerequest}\boolfalse {citetracker}\boolfalse {pagetracker}\boolfalse {backtracker}\relax }
\@writefile{lot}{\boolfalse {citerequest}\boolfalse {citetracker}\boolfalse {pagetracker}\boolfalse {backtracker}\relax }
\select@language {russian}
\@writefile{toc}{\defcounter {refsection}{0}\relax }\@writefile{toc}{\select@language {russian}}
\@writefile{lof}{\defcounter {refsection}{0}\relax }\@writefile{lof}{\select@language {russian}}
\@writefile{lot}{\defcounter {refsection}{0}\relax }\@writefile{lot}{\select@language {russian}}
\@writefile{toc}{\defcounter {refsection}{0}\relax }\@writefile{toc}{\contentsline {section}{\numberline {1}Введение и предлагаемый метод исследования.}{1}{section.1}}
\abx@aux@cite{tdrv3.1}
\abx@aux@segm{0}{0}{tdrv3.1}
\abx@aux@cite{tdrv3.2}
\abx@aux@segm{0}{0}{tdrv3.2}
\abx@aux@cite{tdrv4}
\abx@aux@segm{0}{0}{tdrv4}
\abx@aux@cite{drutskoy}
\abx@aux@segm{0}{0}{drutskoy}
\abx@aux@cite{vjets}
\abx@aux@segm{0}{0}{vjets}
\@writefile{toc}{\defcounter {refsection}{0}\relax }\@writefile{toc}{\contentsline {section}{\numberline {2}Моделирование и результаты исследования.}{3}{section.2}}
\@writefile{lof}{\defcounter {refsection}{0}\relax }\@writefile{lof}{\contentsline {figure}{\numberline {1}{\ignorespaces \relax \fontsize  {10}{12}\selectfont  \abovedisplayskip 10\p@ plus2\p@ minus5\p@ \abovedisplayshortskip \z@ plus3\p@ \belowdisplayshortskip 6\p@ plus3\p@ minus3\p@ \def \leftmargin \leftmargini \parsep 5\p@ plus2.5\p@ minus\p@ \topsep 10\p@ plus4\p@ minus6\p@ \itemsep 5\p@ plus2.5\p@ minus\p@ {\leftmargin \leftmargini \topsep 6\p@ plus2\p@ minus2\p@ \parsep 3\p@ plus2\p@ minus\p@ \itemsep \parsep }\belowdisplayskip \abovedisplayskip {\it  (Слева) Инвариантная масса реконструированного Z-бозона. (Справа) Инвариантная масса реконструированного бозона Хиггса.}}}{4}{figure.1}}
\abx@aux@refcontextdefaultsdone
\abx@aux@defaultrefcontext{0}{atlas}{nty/global//global/global}
\abx@aux@defaultrefcontext{0}{tdrv3.1}{nty/global//global/global}
\abx@aux@defaultrefcontext{0}{tdrv3.2}{nty/global//global/global}
\abx@aux@defaultrefcontext{0}{tdrv4}{nty/global//global/global}
\abx@aux@defaultrefcontext{0}{drutskoy}{nty/global//global/global}
\abx@aux@defaultrefcontext{0}{vjets}{nty/global//global/global}
\@writefile{lof}{\defcounter {refsection}{0}\relax }\@writefile{lof}{\contentsline {figure}{\numberline {2}{\ignorespaces \relax \fontsize  {10}{12}\selectfont  \abovedisplayskip 10\p@ plus2\p@ minus5\p@ \abovedisplayshortskip \z@ plus3\p@ \belowdisplayshortskip 6\p@ plus3\p@ minus3\p@ \def \leftmargin \leftmargini \parsep 5\p@ plus2.5\p@ minus\p@ \topsep 10\p@ plus4\p@ minus6\p@ \itemsep 5\p@ plus2.5\p@ minus\p@ {\leftmargin \leftmargini \topsep 6\p@ plus2\p@ minus2\p@ \parsep 3\p@ plus2\p@ minus\p@ \itemsep \parsep }\belowdisplayskip \abovedisplayskip {\it  (Слева) Разница масс для случая отсутствия действительной ширины у реального Z-бозона. (Справа) Разница масс для случая наличия действительной ширины у реального Z-бозона.}}}{5}{figure.2}}
